{
  "Reroutes": [
    {
      "UseServiceDiscovery": true,
      "DownstreamPathTemplate": "/ProductService/GetByID",
      "DownstreamScheme": "https",
      "ServiceName": "ProductService",
      "UpstreamPathTemplate": "/ProductService/GetByID",
      "UpstreamHttpMethod": [ "Post" ],
      "ReRouteCaseSensitive": false
    },
    {
      "UseServiceDiscovery": true,
      "DownstreamPathTemplate": "/ProductService/CreateOrder",
      "DownstreamScheme": "https",
      "ServiceName": "ProductService",
      "UpstreamPathTemplate": "/ProductService/CreateOrder",
      "UpstreamHttpMethod": [ "Post" ],
      "ReRouteCaseSensitive": false
    }
  ],
  "GlobalConfiguration": {
    "ServiceDiscoveryProvider": {
      "Host": "192.168.99.100",
      "Port": 8500,
      "Type": "Consul"
    }
  }
}
