{
  "Reroutes": [
    {
      "UseServiceDiscovery": true,
      "DownstreamPathTemplate": "/api/Post/{anything}",
      "DownstreamScheme": "https",
      "ServiceName": "AuthService",
      "UpstreamPathTemplate": "/api/Post/{anything}",
      "UpstreamHttpMethod": [ "Get", "Post" ],
      "ReRouteCaseSensitive": false
    }
  ],
  "GlobalConfiguration": {
    "ServiceDiscoveryProvider": {
      "Host": "192.168.99.100",
      "Port": 8500,
      "Type": "Consul"
    }
  }
}
